%YAML 1.1
%TAG !u! tag:unity3d.com,2011:
--- !u!114 &11400000
MonoBehaviour:
  m_ObjectHideFlags: 0
  m_CorrespondingSourceObject: {fileID: 0}
  m_PrefabInstance: {fileID: 0}
  m_PrefabAsset: {fileID: 0}
  m_GameObject: {fileID: 0}
  m_Enabled: 1
  m_EditorHideFlags: 0
  m_Script: {fileID: 11500000, guid: 79c5ce9873d8cd34aa30200cf9f972b6, type: 3}
  m_Name: Duraks dad
  m_EditorClassIdentifier: 
  name: Duraks dad
  colour: {r: 0, g: 0, b: 0, a: 1}
  originalSpriteGroup: {fileID: 11400000, guid: b4f2939131da4d44fb2e841ab10fc0df,
    type: 2}
  expectedSprites: []
  id: 1
