%YAML 1.1
%TAG !u! tag:unity3d.com,2011:
--- !u!114 &11400000
MonoBehaviour:
  m_ObjectHideFlags: 0
  m_PrefabParentObject: {fileID: 0}
  m_PrefabInternal: {fileID: 0}
  m_GameObject: {fileID: 0}
  m_Enabled: 1
  m_EditorHideFlags: 0
  m_Script: {fileID: 11500000, guid: 9a7f2eeff5b4a0840b441b3fdeefd08d, type: 3}
  m_Name: DadsWithDurak
  m_EditorClassIdentifier: 
  startLevel: 0
  currentLevel: 0
  startDelta: 0
  currentDelta: 0
  consequenceThresholds: []
