%YAML 1.1
%TAG !u! tag:unity3d.com,2011:
--- !u!114 &11400000
MonoBehaviour:
  m_ObjectHideFlags: 0
  m_PrefabParentObject: {fileID: 0}
  m_PrefabInternal: {fileID: 0}
  m_GameObject: {fileID: 0}
  m_Enabled: 1
  m_EditorHideFlags: 0
  m_Script: {fileID: 11500000, guid: c4582ee287c31044a971757a9ed5d42b, type: 3}
  m_Name: Crowds_Nervous
  m_EditorClassIdentifier: 
  description: 
  allowedZones: 
  priority: 0
  cardType: 0
  dialogue:
    musicGroup: {fileID: 0}
    parts:
    - character: {fileID: 0}
      sentence: People are talking nervously - the rumours about the orcs are spreading.
      background: {fileID: 21300000, guid: ff86b403d356ecb41a63c5b22533ecdf, type: 3}
    - character: {fileID: 11400000, guid: 4fcd932d7d5ee4945bf2ba1d764186cd, type: 2}
      sentence: This could get bad.
      background: {fileID: 0}
    options:
    - buttonText: Go on
      requirements: []
      consequences:
      - consequenceType: 1
        addable: {fileID: 11400000}
        valueInt: 0
        valueString: 
        valueSprite: {fileID: 0}
      - consequenceType: 4
        addable: {fileID: 11400000, guid: 4a2dd2d0648d3a841a844f8221ba2ffb, type: 2}
        valueInt: 1
        valueString: 
        valueSprite: {fileID: 0}
      endingDialoguePart:
        character: {fileID: 0}
        sentence: 
        background: {fileID: 0}
