%YAML 1.1
%TAG !u! tag:unity3d.com,2011:
--- !u!114 &11400000
MonoBehaviour:
  m_ObjectHideFlags: 0
  m_PrefabParentObject: {fileID: 0}
  m_PrefabInternal: {fileID: 0}
  m_GameObject: {fileID: 0}
  m_Enabled: 1
  m_EditorHideFlags: 0
  m_Script: {fileID: 11500000, guid: c4582ee287c31044a971757a9ed5d42b, type: 3}
  m_Name: Empty Halls
  m_EditorClassIdentifier: 
  description: The halls echo, but no dwarf is in sight.
  allowedZones: 
  priority: 0
  cardType: 0
  dialogue:
    parts:
    - character: {fileID: 11400000, guid: 4fcd932d7d5ee4945bf2ba1d764186cd, type: 2}
      sentence: There's no one here! I can hurry onwards!
      background: {fileID: 21300000, guid: b69738c35db7b5c4c99d181314d2ad9e, type: 3}
    options:
    - buttonText: Hurry
      requirements: []
      consequences:
      - consequenceType: 1
        addable: {fileID: 11400000}
        valueInt: 0
        valueString: 
      endingDialoguePart:
        character: {fileID: 0}
        sentence: 
        background: {fileID: 0}
