%YAML 1.1
%TAG !u! tag:unity3d.com,2011:
--- !u!114 &11400000
MonoBehaviour:
  m_ObjectHideFlags: 0
  m_CorrespondingSourceObject: {fileID: 0}
  m_PrefabInstance: {fileID: 0}
  m_PrefabAsset: {fileID: 0}
  m_GameObject: {fileID: 0}
  m_Enabled: 1
  m_EditorHideFlags: 0
  m_Script: {fileID: 11500000, guid: c7eeab02df75e2f41b79dee6fc690782, type: 3}
  m_Name: HasAskedBarkeepName
  m_EditorClassIdentifier: 
  startLevel: 0
  currentLevel: 0
  startDelta: 0
  currentDelta: 0
  visibility: 0
  consequenceThresholds: []
  statusUI: {fileID: 0}
  id: 0
