%YAML 1.1
%TAG !u! tag:unity3d.com,2011:
--- !u!114 &11400000
MonoBehaviour:
  m_ObjectHideFlags: 0
  m_CorrespondingSourceObject: {fileID: 0}
  m_PrefabInstance: {fileID: 0}
  m_PrefabAsset: {fileID: 0}
  m_GameObject: {fileID: 0}
  m_Enabled: 1
  m_EditorHideFlags: 0
  m_Script: {fileID: 11500000, guid: c4582ee287c31044a971757a9ed5d42b, type: 3}
  m_Name: Marketplace with vagabond
  m_EditorClassIdentifier: 
  description: 
  allowedZones: []
  allowedLocations:
  - {fileID: 5212587553706101495, guid: 3e52f90a4e354b54587ba316f39fbb3c, type: 3}
  priority: 0
  cardType: 2
  dialogue:
    musicGroup: {fileID: 0}
    parts:
    - character: {fileID: 0}
      spriteIndex: 0
      noSprite: 0
      sentence: It's a quiet day at the market
      background: {fileID: 21300000, guid: bf56e5f93994ef141b66a264f1880004, type: 3}
    options:
    - buttonText: Browse food
      requirements: []
      consequences: []
      endingDialoguePart:
        character: {fileID: 0}
        spriteIndex: 0
        noSprite: 0
        sentence: Here you can buy bread, vegetables, fruits, meat. Fairly standard
          for a small village
        background: {fileID: 0}
      goBackToOptions: 1
    - buttonText: Browse general store
      requirements: []
      consequences: []
      endingDialoguePart:
        character: {fileID: 0}
        spriteIndex: 0
        noSprite: 0
        sentence: Here you can buy clothes, belts, buckles, tools, buckets, bowls.
          Fairly standard for a small village
        background: {fileID: 0}
      goBackToOptions: 1
    - buttonText: Speak to Vagabond
      requirements: []
      consequences:
      - consequenceType: 8
        addable: {fileID: 11400000, guid: 9e4fe8e7e0b1dd7418fa28b8dd02d268, type: 2}
        valueInt: 0
        valueString: 
        valueSprite: {fileID: 0}
        valueLocation: {fileID: 0}
      endingDialoguePart:
        character: {fileID: 0}
        spriteIndex: 0
        noSprite: 0
        sentence: 
        background: {fileID: 0}
      goBackToOptions: 0
    - buttonText: Leave
      requirements: []
      consequences:
      - consequenceType: 1
        addable: {fileID: 11400000, guid: d07837598b7683e4aafd0c056f7fe6ed, type: 2}
        valueInt: 0
        valueString: 
        valueSprite: {fileID: 0}
        valueLocation: {fileID: 0}
      - consequenceType: 12
        addable: {fileID: 11400000, guid: d07837598b7683e4aafd0c056f7fe6ed, type: 2}
        valueInt: 0
        valueString: 
        valueSprite: {fileID: 0}
        valueLocation: {fileID: 5212587553706101495, guid: 3e52f90a4e354b54587ba316f39fbb3c,
          type: 3}
      endingDialoguePart:
        character: {fileID: 0}
        spriteIndex: 0
        noSprite: 0
        sentence: 
        background: {fileID: 0}
      goBackToOptions: 0
    cardId: 28
