%YAML 1.1
%TAG !u! tag:unity3d.com,2011:
--- !u!114 &11400000
MonoBehaviour:
  m_ObjectHideFlags: 0
  m_CorrespondingSourceObject: {fileID: 0}
  m_PrefabInstance: {fileID: 0}
  m_PrefabAsset: {fileID: 0}
  m_GameObject: {fileID: 0}
  m_Enabled: 1
  m_EditorHideFlags: 0
  m_Script: {fileID: 11500000, guid: c4582ee287c31044a971757a9ed5d42b, type: 3}
  m_Name: Vagabond intro
  m_EditorClassIdentifier: 
  description: 
  allowedZones: []
  allowedLocations: []
  priority: 0
  cardType: 0
  dialogue:
    musicGroup: {fileID: 0}
    parts:
    - character: {fileID: 11400000, guid: bf39a468fa5e2eb468c24ed6b10c288c, type: 2}
      spriteIndex: 0
      noSprite: 0
      sentence: Stay back, I aint done nothink illegal!
      background: {fileID: 0}
    - character: {fileID: 11400000, guid: a85eac09535d9f64db3d1038b117bf0b, type: 2}
      spriteIndex: 1
      noSprite: 0
      sentence: Calm yourself!
      background: {fileID: 0}
    options:
    - buttonText: Ask about the murder
      requirements: []
      consequences:
      - consequenceType: 8
        addable: {fileID: 11400000, guid: 4ac0a4f186d202b47a7811e1eb55b84c, type: 2}
        valueInt: 0
        valueString: 
        valueSprite: {fileID: 0}
        valueLocation: {fileID: 0}
      endingDialoguePart:
        character: {fileID: 0}
        spriteIndex: 0
        noSprite: 0
        sentence: 
        background: {fileID: 0}
      goBackToOptions: 0
    - buttonText: Leave
      requirements: []
      consequences:
      - consequenceType: 8
        addable: {fileID: 11400000, guid: 8b7626850529b304aa99f30386ccc96b, type: 2}
        valueInt: 0
        valueString: 
        valueSprite: {fileID: 0}
        valueLocation: {fileID: 0}
      endingDialoguePart:
        character: {fileID: 0}
        spriteIndex: 0
        noSprite: 0
        sentence: 
        background: {fileID: 0}
      goBackToOptions: 0
    cardId: 29
