%YAML 1.1
%TAG !u! tag:unity3d.com,2011:
--- !u!114 &11400000
MonoBehaviour:
  m_ObjectHideFlags: 0
  m_CorrespondingSourceObject: {fileID: 0}
  m_PrefabInstance: {fileID: 0}
  m_PrefabAsset: {fileID: 0}
  m_GameObject: {fileID: 0}
  m_Enabled: 1
  m_EditorHideFlags: 0
  m_Script: {fileID: 11500000, guid: c4582ee287c31044a971757a9ed5d42b, type: 3}
  m_Name: Church Intro Only Fiduce
  m_EditorClassIdentifier: 
  description: 
  allowedZones: []
  allowedLocations: []
  priority: 0
  cardType: 0
  dialogue:
    musicGroup: {fileID: 0}
    parts:
    - character: {fileID: 11400000, guid: 7c362401833e3fa4cadf530e3190013b, type: 2}
      spriteIndex: 0
      noSprite: 0
      sentence: I will go to my rooms at the mayors manor.
      background: {fileID: 21300000, guid: d813fccfae01dc94190711a9bbaca5ec, type: 3}
    - character: {fileID: 11400000, guid: 7c362401833e3fa4cadf530e3190013b, type: 2}
      spriteIndex: 0
      noSprite: 0
      sentence: Naturally, I won't be sleeping with the common rabble at the local
        Inn, haha!
      background: {fileID: 0}
    - character: {fileID: 11400000, guid: 7c362401833e3fa4cadf530e3190013b, type: 2}
      spriteIndex: 0
      noSprite: 0
      sentence: Now that the crime is solved, you can leave the village anytime, so  we
        won't be seing each other anytime soon.
      background: {fileID: 0}
    options:
    - buttonText: Wait, who was the ugly little man?
      requirements: []
      requirementOperator: 0
      customRequirementRecipe: 
      consequences:
      - consequenceType: 9
        addable: {fileID: 11400000, guid: e8787fdf739ca3143abb547b2751f6aa, type: 2}
        valueInt: 0
        valueString: Mayor Grisham
        valueSprite: {fileID: 0}
        valueLocation: {fileID: 0}
      endingDialoguePart:
        character: {fileID: 11400000, guid: 7c362401833e3fa4cadf530e3190013b, type: 2}
        spriteIndex: 0
        noSprite: 0
        sentence: Oh, that was Mayor Grisham. His family and mine go way back.
        background: {fileID: 0}
      goBackToOptions: 1
    - buttonText: Fine.
      requirements: []
      requirementOperator: 0
      customRequirementRecipe: 
      consequences:
      - consequenceType: 8
        addable: {fileID: 11400000, guid: 66434939595663944b15f029f3aa555a, type: 2}
        valueInt: 0
        valueString: 
        valueSprite: {fileID: 0}
        valueLocation: {fileID: 0}
      - consequenceType: 5
        addable: {fileID: 11400000, guid: 14786d3308598de468926ab4f1054b00, type: 2}
        valueInt: 1
        valueString: 
        valueSprite: {fileID: 0}
        valueLocation: {fileID: 0}
      endingDialoguePart:
        character: {fileID: 11400000, guid: 7c362401833e3fa4cadf530e3190013b, type: 2}
        spriteIndex: 0
        noSprite: 0
        sentence: Ciao!
        background: {fileID: 0}
      goBackToOptions: 0
    cardId: 0
