%YAML 1.1
%TAG !u! tag:unity3d.com,2011:
--- !u!114 &11400000
MonoBehaviour:
  m_ObjectHideFlags: 0
  m_CorrespondingSourceObject: {fileID: 0}
  m_PrefabInstance: {fileID: 0}
  m_PrefabAsset: {fileID: 0}
  m_GameObject: {fileID: 0}
  m_Enabled: 1
  m_EditorHideFlags: 0
  m_Script: {fileID: 11500000, guid: c4582ee287c31044a971757a9ed5d42b, type: 3}
  m_Name: Church Intro Accusation
  m_EditorClassIdentifier: 
  description: 
  allowedZones: []
  allowedLocations: []
  priority: 0
  cardType: 0
  dialogue:
    musicGroup: {fileID: 0}
    parts:
    - character: {fileID: 11400000, guid: 78b9a6907b617d2419e248b9ef1c8fc5, type: 2}
      spriteIndex: 0
      noSprite: 0
      sentence: Why is t-t-t-the colourful man p-p-p-pointing at me?
      background: {fileID: 0}
    - character: {fileID: 11400000, guid: 890b27fe04d945b4aafa8863c94c7e95, type: 2}
      spriteIndex: 0
      noSprite: 0
      sentence: Dimsey, he is saying that you murdered Father Guttenslieb!
      background: {fileID: 0}
    - character: {fileID: 11400000, guid: 78b9a6907b617d2419e248b9ef1c8fc5, type: 2}
      spriteIndex: 2
      noSprite: 0
      sentence: Huh?! N-n-n-...
      background: {fileID: 0}
    - character: {fileID: 11400000, guid: 7c362401833e3fa4cadf530e3190013b, type: 2}
      spriteIndex: 0
      noSprite: 0
      sentence: See? He cannot even deny it. Hang him and we shall have no more murders,
        I guarantee it.
      background: {fileID: 0}
    - character: {fileID: 11400000, guid: 890b27fe04d945b4aafa8863c94c7e95, type: 2}
      spriteIndex: 0
      noSprite: 0
      sentence: Dimsey, follow me to the prison.
      background: {fileID: 0}
    - character: {fileID: 11400000, guid: 78b9a6907b617d2419e248b9ef1c8fc5, type: 2}
      spriteIndex: 1
      noSprite: 0
      sentence: B-b-but I don't want to die.
      background: {fileID: 0}
    - character: {fileID: 11400000, guid: 890b27fe04d945b4aafa8863c94c7e95, type: 2}
      spriteIndex: 0
      noSprite: 0
      sentence: Dimsey!
      background: {fileID: 0}
    - character: {fileID: 11400000, guid: 78b9a6907b617d2419e248b9ef1c8fc5, type: 2}
      spriteIndex: 1
      noSprite: 0
      sentence: Ok...
      background: {fileID: 0}
    options:
    - buttonText: Continue
      requirements: []
      requirementOperator: 0
      customRequirementRecipe: 
      consequences:
      - consequenceType: 8
        addable: {fileID: 11400000, guid: 03d27c3df3d459f4d86366a4c06493a1, type: 2}
        valueInt: 0
        valueString: Mayor Grisham
        valueSprite: {fileID: 0}
        valueLocation: {fileID: 0}
      endingDialoguePart:
        character: {fileID: 0}
        spriteIndex: 0
        noSprite: 0
        sentence: 
        background: {fileID: 0}
      goBackToOptions: 0
    cardId: 21
