%YAML 1.1
%TAG !u! tag:unity3d.com,2011:
--- !u!114 &11400000
MonoBehaviour:
  m_ObjectHideFlags: 0
  m_PrefabParentObject: {fileID: 0}
  m_PrefabInternal: {fileID: 0}
  m_GameObject: {fileID: 0}
  m_Enabled: 1
  m_EditorHideFlags: 0
  m_Script: {fileID: 11500000, guid: f91d0143ff71b19468223388b175a44a, type: 3}
  m_Name: Duraks mother_default
  m_EditorClassIdentifier: 
  sprites:
  - {fileID: 21300000, guid: dd6c54f7e63188e4c9c53a09bdd470bc, type: 3}
  audioClips: []
