%YAML 1.1
%TAG !u! tag:unity3d.com,2011:
--- !u!114 &11400000
MonoBehaviour:
  m_ObjectHideFlags: 0
  m_CorrespondingSourceObject: {fileID: 0}
  m_PrefabInstance: {fileID: 0}
  m_PrefabAsset: {fileID: 0}
  m_GameObject: {fileID: 0}
  m_Enabled: 1
  m_EditorHideFlags: 0
  m_Script: {fileID: 11500000, guid: c4582ee287c31044a971757a9ed5d42b, type: 3}
  m_Name: Barkeep Base
  m_EditorClassIdentifier: 
  description: 
  allowedZones: []
  allowedLocations: []
  priority: 0
  cardType: 0
  dialogue:
    musicGroup: {fileID: 0}
    parts:
    - character: {fileID: 11400000, guid: b79e396ee068c48438135354304c619c, type: 2}
      spriteIndex: 0
      noSprite: 0
      sentence: How can I help you?
      background: {fileID: 0}
    options:
    - buttonText: Please tell me your name, good sir
      requirements:
      - statusLevel: {fileID: 11400000, guid: 49bcc8c7393850849a961e0df2307d6e, type: 2}
        orderType: 2
        value: 0
      requirementOperator: 0
      customRequirementRecipe: 
      consequences:
      - consequenceType: 5
        addable: {fileID: 11400000, guid: 49bcc8c7393850849a961e0df2307d6e, type: 2}
        valueInt: 1
        valueString: 
        valueSprite: {fileID: 0}
        valueLocation: {fileID: 0}
      - consequenceType: 9
        addable: {fileID: 11400000, guid: 019923946df35bd4bad8b21057ae8e60, type: 2}
        valueInt: 0
        valueString: Dmitri
        valueSprite: {fileID: 0}
        valueLocation: {fileID: 0}
      endingDialoguePart:
        character: {fileID: 11400000, guid: b79e396ee068c48438135354304c619c, type: 2}
        spriteIndex: 0
        noSprite: 0
        sentence: I am Dmitri, humble owner and barkeep here at the "Warm Fire" Tavern.
        background: {fileID: 0}
      goBackToOptions: 1
    - buttonText: I have some questions about the murder
      requirements: []
      requirementOperator: 0
      customRequirementRecipe: 
      consequences: []
      endingDialoguePart:
        character: {fileID: 11400000, guid: b79e396ee068c48438135354304c619c, type: 2}
        spriteIndex: 0
        noSprite: 0
        sentence: Sorry, I have to attend my customers. You know, my *paying* customers.
        background: {fileID: 0}
      goBackToOptions: 1
    - buttonText: I'll be back
      requirements: []
      requirementOperator: 0
      customRequirementRecipe: 
      consequences:
      - consequenceType: 8
        addable: {fileID: 11400000, guid: 6eed5f8679e2c8d4a91f33a16c795c28, type: 2}
        valueInt: 0
        valueString: 
        valueSprite: {fileID: 0}
        valueLocation: {fileID: 0}
      endingDialoguePart:
        character: {fileID: 0}
        spriteIndex: 0
        noSprite: 0
        sentence: 
        background: {fileID: 0}
      goBackToOptions: 0
    cardId: 41
