%YAML 1.1
%TAG !u! tag:unity3d.com,2011:
--- !u!114 &11400000
MonoBehaviour:
  m_ObjectHideFlags: 0
  m_CorrespondingSourceObject: {fileID: 0}
  m_PrefabInstance: {fileID: 0}
  m_PrefabAsset: {fileID: 0}
  m_GameObject: {fileID: 0}
  m_Enabled: 1
  m_EditorHideFlags: 0
  m_Script: {fileID: 11500000, guid: c4582ee287c31044a971757a9ed5d42b, type: 3}
  m_Name: Lisette Base
  m_EditorClassIdentifier: 
  description: 
  allowedZones: []
  allowedLocations: []
  priority: 0
  cardType: 0
  dialogue:
    musicGroup: {fileID: 0}
    parts:
    - character: {fileID: 11400000, guid: 17cfd1dce4fa11546ad81014eb1030b9, type: 2}
      spriteIndex: 0
      noSprite: 0
      sentence: 'Hello, #Lisette_calls_Klaus#! What can I do for you?'
      background: {fileID: 0}
    options:
    - buttonText: Who are you?
      requirements:
      - statusLevel: {fileID: 11400000, guid: 4f85af67742e65342a26aa2dbb430e9e, type: 2}
        orderType: 2
        value: 0
      requirementOperator: 0
      customRequirementRecipe: 
      consequences:
      - consequenceType: 9
        addable: {fileID: 11400000, guid: 65166c154e08a824ea07872f14e6e8ff, type: 2}
        valueInt: 0
        valueString: Lisette
        valueSprite: {fileID: 0}
        valueLocation: {fileID: 0}
      - consequenceType: 8
        addable: {fileID: 11400000, guid: 5b1ff1d5be5c6a04b89988da3e2ff5ff, type: 2}
        valueInt: 0
        valueString: Lisette
        valueSprite: {fileID: 0}
        valueLocation: {fileID: 0}
      - consequenceType: 5
        addable: {fileID: 11400000, guid: 4f85af67742e65342a26aa2dbb430e9e, type: 2}
        valueInt: 1
        valueString: Lisette
        valueSprite: {fileID: 0}
        valueLocation: {fileID: 0}
      - consequenceType: 9
        addable: {fileID: 11400000, guid: 24abe155f38804e40a708eaeafae5b0d, type: 2}
        valueInt: 1
        valueString: Klaus
        valueSprite: {fileID: 0}
        valueLocation: {fileID: 0}
      endingDialoguePart:
        character: {fileID: 0}
        spriteIndex: 0
        noSprite: 0
        sentence: 
        background: {fileID: 0}
      goBackToOptions: 0
    - buttonText: Is the mayor here?
      requirements: []
      requirementOperator: 0
      customRequirementRecipe: 
      consequences:
      - consequenceType: 8
        addable: {fileID: 11400000, guid: 77fedb7f13dbf744c9e3f246b82e8394, type: 2}
        valueInt: 0
        valueString: 
        valueSprite: {fileID: 0}
        valueLocation: {fileID: 0}
      endingDialoguePart:
        character: {fileID: 0}
        spriteIndex: 0
        noSprite: 0
        sentence: 
        background: {fileID: 0}
      goBackToOptions: 0
    - buttonText: Goodbye
      requirements: []
      requirementOperator: 0
      customRequirementRecipe: 
      consequences:
      - consequenceType: 8
        addable: {fileID: 11400000, guid: e898048fc4be82f49951fe566b08e2d6, type: 2}
        valueInt: 0
        valueString: 
        valueSprite: {fileID: 0}
        valueLocation: {fileID: 0}
      endingDialoguePart:
        character: {fileID: 0}
        spriteIndex: 0
        noSprite: 0
        sentence: 
        background: {fileID: 0}
      goBackToOptions: 0
    cardId: 26
